R Notebook
…
Does the above make sense? Its quite possible it doesnt - if so, lets meet to discuss. I could do Mon 21st 1530 at SPHSU or Fri 25th (not 14-1500) venue TBC.

It probably would be sensible to have most/all of Figs 1-5 drafted and then we can circulate to the broader group. I wouldnt bother doing the Appendix and Table just now, but prepping the exposure data in the meantime may be worthwhile.

Cheers.

Vittal

New permalink: http://ghdx.healthdata.org/gbd-results-tool?params=gbd-api-2016-permalink/49f19f6b2e1fafca509aeeea1adda399

This file contains the code for downloading the zip files directly by url.

To start lets load and bind the two files together

## # A tibble: 1,008,504 x 18
##    measure_id measure_name location_id location_name sex_id sex_name
##         <int>        <chr>       <int>         <chr>  <int>    <chr>
##  1          1       Deaths           1        Global      2   Female
##  2          1       Deaths           1        Global      1     Male
##  3          1       Deaths           1        Global      2   Female
##  4          1       Deaths           1        Global      1     Male
##  5          1       Deaths           1        Global      2   Female
##  6          1       Deaths           1        Global      1     Male
##  7          1       Deaths           1        Global      2   Female
##  8          1       Deaths           1        Global      1     Male
##  9          1       Deaths           1        Global      2   Female
## 10          1       Deaths           1        Global      1     Male
## # ... with 1,008,494 more rows, and 12 more variables: age_id <int>,
## #   age_name <chr>, cause_id <int>, cause_name <chr>, rei_id <int>,
## #   rei_name <chr>, metric_id <int>, metric_name <chr>, year <int>,
## #   val <dbl>, upper <dbl>, lower <dbl>
…
dta_e0

## # A tibble: 324 x 14
##    measure_id    measure_name location_id   location_name sex_id sex_name
##         <int>           <chr>       <int>           <chr>  <int>    <chr>
##  1         26 Life expectancy           1          Global      1     Male
##  2         26 Life expectancy           1          Global      2   Female
##  3         26 Life expectancy           1          Global      1     Male
##  4         26 Life expectancy           1          Global      2   Female
##  5         26 Life expectancy       44634 High-middle SDI      1     Male
##  6         26 Life expectancy       44634 High-middle SDI      2   Female
##  7         26 Life expectancy       44635        High SDI      1     Male
##  8         26 Life expectancy       44635        High SDI      2   Female
##  9         26 Life expectancy       44636  Low-middle SDI      1     Male
## 10         26 Life expectancy       44636  Low-middle SDI      2   Female
## # ... with 314 more rows, and 8 more variables: age_id <int>,
## #   age_name <chr>, metric_id <int>, metric_name <chr>, year <int>,
## #   val <dbl>, upper <dbl>, lower <dbl>
…
